2020547_EXP1.vcd
$date
	Mon Dec 19 17:03:28 2022
$end
$version
	Icarus Verilog
$end
$timescale
	1s
$end
$scope module Lab1Experiment $end
$var reg 1 ! i1 $end
$upscope $end
$scope module Lab1Experiment $end
$var reg 1 " i2 $end
$upscope $end
$scope module Lab1Experiment $end
$var wire 1 # not1 $end
$upscope $end
$scope module Lab1Experiment $end
$var wire 1 $ not2 $end
$upscope $end
$scope module Lab1Experiment $end
$var wire 1 % and1 $end
$upscope $end
$scope module Lab1Experiment $end
$var wire 1 & or1 $end
$upscope $end
$enddefinitions $end
$comment Show the parameter values. $end
$dumpall
$end
#0
$dumpvars
x&
x%
x$
x#
x"
x!
$end
#1
0%
1#
0!
#4
1&
x%
0#
1!
#5
1$
0&
0%
1#
0"
0!
#8
1&
0$
1"
#9
1$
0#
0"
1!
#10
1%
0$
1"
#11
1$
0&
0%
1#
0"
0!
#14
1&
0$
1"
#15
1$
0#
0"
1!
#16
1%
0$
1"
