2020547_EXP3.vcd
$date
	Mon Dec 19 17:25:48 2022
$end
$version
	Icarus Verilog
$end
$timescale
	1s
$end
$scope module Lab3TestBench $end
$scope module P1Min $end
$var wire 1 ! BnotC $end
$var wire 1 " a $end
$var wire 1 # b $end
$var wire 1 $ c $end
$var wire 1 % i $end
$var wire 1 & notA $end
$var wire 1 ' notAnotB $end
$var wire 1 ( notB $end
$var wire 1 ) notBC $end
$var wire 1 * notC $end
$upscope $end
$upscope $end
$scope module Lab3TestBench $end
$scope module P1Max $end
$var wire 1 " a $end
$var wire 1 # b $end
$var wire 1 $ c $end
$var wire 1 + i $end
$var wire 1 , notA $end
$var wire 1 - notABC $end
$var wire 1 . notB $end
$var wire 1 / notBnotC $end
$var wire 1 0 notC $end
$upscope $end
$upscope $end
$scope module Lab3TestBench $end
$scope module P5Min $end
$var wire 1 1 ABnotC $end
$var wire 1 2 AnotBCD $end
$var wire 1 " a $end
$var wire 1 # b $end
$var wire 1 $ c $end
$var wire 1 3 d $end
$var wire 1 4 i $end
$var wire 1 5 notA $end
$var wire 1 6 notADB $end
$var wire 1 7 notADnotC $end
$var wire 1 8 notAnotCnotB $end
$var wire 1 9 notB $end
$var wire 1 : notC $end
$upscope $end
$upscope $end
$scope module Lab3TestBench $end
$scope module P5Max $end
$var wire 1 ; ABnotC $end
$var wire 1 < AnotBD $end
$var wire 1 " a $end
$var wire 1 # b $end
$var wire 1 $ c $end
$var wire 1 3 d $end
$var wire 1 = i $end
$var wire 1 > notA $end
$var wire 1 ? notABC $end
$var wire 1 @ notAnotBnotC $end
$var wire 1 A notB $end
$var wire 1 B notC $end
$var wire 1 C notCD $end
$upscope $end
$upscope $end
$enddefinitions $end
$comment Show the parameter values. $end
$dumpall
$end
#0
$dumpvars
xC
xB
xA
x@
x?
x>
x=
x<
x;
x:
x9
x8
x7
x6
x5
x4
x3
x2
x1
x0
x/
x.
x-
x,
x+
x*
x)
x(
x'
x&
x%
x$
x#
x"
x!
$end
#1
1=
14
1+
1;
1C
1/
1%
1<
1'
1@
18
10
1*
0)
1B
1:
1.
1-
1(
0!
1A
1?
19
06
1,
1&
1>
15
02
01
0$
0#
0"
#2
0=
04
0;
xC
08
07
00
0*
1)
0B
0:
1$
#3
x=
x4
1!
1%
1C
x7
0'
x<
10
1*
0)
1B
1:
0.
0(
0A
1;
09
x6
0$
1#
#4
0+
0%
0/
0!
xC
07
00
0*
0B
0:
1$
#5
04
0=
1C
1/
10
1*
1B
1:
1.
0-
1(
1A
0?
19
06
0,
0&
0>
1<
05
0$
0#
1"
#6
x=
x4
1+
1%
xC
00
1-
0*
1)
0B
1?
0:
x2
1$
#7
1=
14
1!
1%
1C
11
10
1*
0)
1B
1:
02
0.
0(
0A
09
0$
1#
#8
0=
04
0+
0%
0/
0!
0@
xC
01
00
0*
0B
0:
1$
#9
1=
14
1+
1%
1C
1/
1'
1@
18
x7
10
1*
1B
1:
1.
1(
1A
19
1,
1&
1>
1<
1;
15
0$
0#
0"
#10
0=
04
0;
xC
08
07
00
0*
1)
0B
0:
1$
#11
x=
x4
1!
1%
1C
x7
0'
x<
10
1*
0)
1B
1:
0.
0(
0A
1;
09
x6
0$
1#
#12
0+
0%
0/
0!
xC
07
00
0*
0B
0:
1$
#13
04
0=
1C
1/
10
1*
1B
1:
1.
0-
1(
1A
0?
19
06
0,
0&
0>
1<
05
0$
0#
1"
#14
x=
x4
1+
1%
xC
00
1-
0*
1)
0B
1?
0:
x2
1$
#15
1=
14
1!
1%
1C
11
10
1*
0)
1B
1:
02
0.
0(
0A
09
0$
1#
#16
0=
04
0+
0%
0/
0!
0@
xC
01
00
0*
0B
0:
1$
#17
14
1=
1+
1%
1/
1'
1@
18
1C
10
1*
1B
1:
1.
1(
1A
19
1,
1&
1>
1<
1;
15
03
0$
0#
0"
#18
17
13
#19
0=
04
0;
08
0C
07
00
0*
1)
0B
0:
03
1$
#20
1C
13
#21
1!
1%
0'
0<
10
1*
0)
1B
1:
0.
0(
0A
1;
09
03
0$
1#
#22
1=
14
1<
16
17
13
#23
0=
04
0+
0%
0/
0!
0<
0C
06
07
00
0*
0B
0:
03
1$
#24
1=
14
1<
1C
16
13
#25
0=
04
1/
10
1*
1B
1:
1.
0-
1(
1A
0?
19
06
0,
0&
0>
05
03
0$
0#
1"
#26
13
#27
1+
1%
0C
00
1-
0*
1)
0B
1?
0:
03
1$
#28
1=
14
1C
12
13
#29
14
1!
1%
11
10
1*
0)
1B
1:
02
0.
0(
0A
09
03
0$
1#
#30
13
#31
04
0=
0+
0%
0/
0!
0@
01
0C
00
0*
0B
0:
03
1$
#32
1C
13
#33
1=
14
1+
1%
1/
1'
1@
18
10
1*
1B
1:
1.
1(
1A
19
1,
1&
1>
1<
1;
15
03
0$
0#
0"
#34
17
13
#35
0=
04
0;
08
0C
07
00
0*
1)
0B
0:
03
1$
#36
1C
13
#37
1!
1%
0'
0<
10
1*
0)
1B
1:
0.
0(
0A
1;
09
03
0$
1#
#38
1=
14
1<
16
17
13
#39
0=
04
0+
0%
0/
0!
0<
0C
06
07
00
0*
0B
0:
03
1$
#40
1=
14
1<
1C
16
13
#41
0=
04
1/
10
1*
1B
1:
1.
0-
1(
1A
0?
19
06
0,
0&
0>
05
03
0$
0#
1"
#42
13
#43
1+
1%
0C
00
1-
0*
1)
0B
1?
0:
03
1$
#44
1=
14
1C
12
13
#45
14
1!
1%
11
10
1*
0)
1B
1:
02
0.
0(
0A
09
03
0$
1#
#46
13
#47
04
0=
0+
0%
0/
0!
0@
01
0C
00
0*
0B
0:
03
1$
#48
1C
13
