2020547_EXP2.vcd
$date
	Mon Dec 19 17:16:01 2022
$end
$version
	Icarus Verilog
$end
$timescale
	1s
$end
$scope module Experiment2 $end
$scope module A1 $end
$var wire 1 ! NAND1 $end
$var wire 1 " NOR1 $end
$var wire 1 # a $end
$var wire 1 $ b $end
$var wire 1 % negativeAND1 $end
$var wire 1 & negativeOR1 $end
$var wire 1 ' notA $end
$var wire 1 ( notB $end
$upscope $end
$upscope $end
$scope module Experiment2 $end
$scope module B1 $end
$var wire 1 # a $end
$var wire 1 $ b $end
$var wire 1 ) notA $end
$var wire 1 * notAOrnotB $end
$var wire 1 + notB $end
$var wire 1 , x $end
$upscope $end
$upscope $end
$scope module Experiment2 $end
$scope module A2 $end
$var wire 1 # a $end
$var wire 1 $ b $end
$var wire 1 - nor1 $end
$var wire 1 . nor2 $end
$var wire 1 / x $end
$upscope $end
$upscope $end
$scope module Experiment2 $end
$scope module B2 $end
$var wire 1 # a $end
$var wire 1 $ b $end
$var wire 1 0 nand1 $end
$var wire 1 1 nand2 $end
$var wire 1 2 x $end
$upscope $end
$upscope $end
$enddefinitions $end
$comment Show the parameter values. $end
$dumpall
$end
#0
$dumpvars
x2
x1
x0
x/
x.
x-
x,
x+
x*
x)
x(
x'
x&
x%
x$
x#
x"
x!
$end
#3
0,
1&
1%
0/
1*
02
1(
1.
1+
11
1'
1!
1"
1-
1)
10
0$
0#
#4
0%
12
0(
0"
0.
0+
01
1$
#5
1(
1.
1+
11
0'
0-
0)
00
0$
1#
#6
1,
0&
1/
0*
0(
0!
0.
0+
01
1$
#8
0,
1&
1%
0/
1*
02
1(
1.
1+
11
1'
1!
1"
1-
1)
10
0$
0#
#9
0%
12
0(
0"
0.
0+
01
1$
#10
1(
1.
1+
11
0'
0-
0)
00
0$
1#
#11
1,
0&
1/
0*
0(
0!
0.
0+
01
1$
#14
0,
1&
1%
0/
1*
02
1(
1.
1+
11
1'
1!
1"
1-
1)
10
0$
0#
#15
0%
12
0(
0"
0.
0+
01
1$
#16
1(
1.
1+
11
0'
0-
0)
00
0$
1#
#17
1,
0&
1/
0*
0(
0!
0.
0+
01
1$
#19
0,
1&
1%
0/
1*
02
1(
1.
1+
11
1'
1!
1"
1-
1)
10
0$
0#
#20
0%
12
0(
0"
0.
0+
01
1$
#21
1(
1.
1+
11
0'
0-
0)
00
0$
1#
#22
1,
0&
1/
0*
0(
0!
0.
0+
01
1$
#25
0,
1&
0/
1*
1'
1!
1-
1)
10
0#
#26
1(
1.
1+
11
0'
0-
0)
00
0$
1#
#27
1,
0&
1/
0*
0(
0!
0.
0+
01
1$
#29
0,
1&
0/
1*
1(
1!
1.
1+
11
0$
#30
0(
0.
0+
01
1'
1-
1)
10
1$
0#
#31
1%
02
1(
1"
1.
1+
11
0$
#33
0%
12
0(
0"
0.
0+
01
1$
#34
1(
1.
1+
11
0'
0-
0)
00
0$
1#
#35
1,
0&
1/
0*
0(
0!
0.
0+
01
1$
