2020547_EXP5.vcd
$date
	Mon Dec 19 17:37:37 2022
$end
$version
	Icarus Verilog
$end
$timescale
	1s
$end
$scope module Lab5TB $end
$scope module HFADD $end
$var wire 1 ! A $end
$var wire 1 " B $end
$var wire 1 # Carry $end
$var wire 1 $ Sum $end
$upscope $end
$upscope $end
$scope module Lab5TB $end
$scope module FLADD $end
$var wire 1 ! a $end
$var wire 1 % and1 $end
$var wire 1 & and2 $end
$var wire 1 " b $end
$var wire 1 ' c_In $end
$var wire 1 ( c_out $end
$var wire 1 ) sum $end
$var wire 1 * xor1 $end
$upscope $end
$upscope $end
$scope module Lab5TB $end
$scope module HFSUB $end
$var wire 1 ! A $end
$var wire 1 " B $end
$var wire 1 + D $end
$var wire 1 , bOut $end
$var wire 1 - not1 $end
$upscope $end
$upscope $end
$scope module Lab5TB $end
$scope module FFSUB $end
$var wire 1 ! A $end
$var wire 1 " B $end
$var wire 1 . D $end
$var wire 1 / and1 $end
$var wire 1 0 and2 $end
$var wire 1 1 bIn $end
$var wire 1 2 bOut $end
$var wire 1 3 not1 $end
$var wire 1 4 not2 $end
$var wire 1 5 xor1 $end
$upscope $end
$upscope $end
$enddefinitions $end
$comment Show the parameter values. $end
$dumpall
$end
#0
$dumpvars
x5
x4
x3
x2
x1
x0
x/
x.
x-
x,
x+
x*
x)
x(
x'
x&
x%
x$
x#
x"
x!
$end
#1
0(
14
0%
0/
0,
13
05
0*
0&
0#
0$
0+
1-
0"
0!
#3
00
x(
04
12
x%
15
1/
1*
1$
1+
1,
1"
#4
02
0/
0,
03
0-
0"
1!
#5
x2
x0
14
0%
1(
05
0*
1&
1#
0$
0+
1"
#6
0(
0)
13
0&
0#
1-
0'
0"
0!
#8
1)
1'
#9
00
04
12
15
1/
1*
1$
1+
1,
0'
1"
#10
1(
0)
1%
1'
#11
0(
02
1)
0%
0/
0,
03
0-
0'
0"
1!
#12
1(
0)
1%
1'
#13
x2
x0
14
0%
05
0*
1&
1#
0$
0+
0'
1"
#14
1)
1'
#15
0(
13
0&
0#
1-
0"
0!
#17
00
1(
04
12
0)
1%
15
1/
1*
1$
1+
1,
1"
#18
02
0/
0,
03
0-
0"
1!
#19
x2
x0
14
1)
0%
05
0*
1&
1#
0$
0+
1"
#20
02
0(
0.
00
13
0&
0#
1-
01
0"
0!
#22
12
1.
10
11
#23
1(
04
0)
1%
00
15
1/
1*
1$
1+
1,
01
1"
#24
0.
11
#25
02
1.
0/
0,
03
0-
01
0"
1!
#26
0.
11
#27
14
1)
0%
05
0*
1&
1#
0$
0+
01
1"
#28
12
1.
10
11
